…
## Answer Questions

1.  How many distinct stations are there? Note that stations are
    identified both by name and by line (e.g. 125th St 8th Avenue; 125st
    Broadway; 125st Lenox); the distinct function may be useful here.

``` r
trans_entr_df |> 
  select(station_name, line) |>
  distinct()
```

    ## # A tibble: 465 × 2
    ##    station_name             line    
    ##    <chr>                    <chr>   
    ##  1 25th St                  4 Avenue
    ##  2 36th St                  4 Avenue
    ##  3 45th St                  4 Avenue
    ##  4 53rd St                  4 Avenue
    ##  5 59th St                  4 Avenue
    ##  6 77th St                  4 Avenue
    ##  7 86th St                  4 Avenue
    ##  8 95th St                  4 Avenue
    ##  9 9th St                   4 Avenue
    ## 10 Atlantic Av-Barclays Ctr 4 Avenue
    ## # ℹ 455 more rows

- There are 465 distinct stations.

2.  How many stations are ADA compliant?

``` r
trans_entr_df |> 
  filter(ada == "TRUE")|>
  select(station_name, line) |>
  distinct()
```

    ## # A tibble: 84 × 2
    ##    station_name                   line           
    ##    <chr>                          <chr>          
    ##  1 Atlantic Av-Barclays Ctr       4 Avenue       
    ##  2 DeKalb Av                      4 Avenue       
    ##  3 Pacific St                     4 Avenue       
    ##  4 Grand Central                  42nd St Shuttle
    ##  5 34th St                        6 Avenue       
    ##  6 47-50th Sts Rockefeller Center 6 Avenue       
    ##  7 Church Av                      6 Avenue       
    ##  8 21st St                        63rd Street    
    ##  9 Lexington Av                   63rd Street    
    ## 10 Roosevelt Island               63rd Street    
    ## # ℹ 74 more rows
…
### Check for completeness and correctness across datasets

e.g. by viewing individual datasets and using anti_join

``` r
anti_join(baker_df, bake_df)
```

    ## Joining with `by = join_by(baker_fist_name, series)`

    ## # A tibble: 26 × 6
    ##    baker_fist_name baker_last_name series baker_age baker_occupation    hometown
    ##    <chr>           <chr>            <dbl>     <dbl> <chr>               <chr>   
    ##  1 Alice           Fevronia            10        28 Geography teacher   Essex   
    ##  2 Amelia          LeBruin             10        24 Fashion designer    Halifax 
    ##  3 Antony          Amourdoux            9        30 Banker              London  
    ##  4 Briony          Williams             9        33 Full-time parent    Bristol 
    ##  5 Dan             Beasley-Harling      9        36 Full-time parent    London  
    ##  6 Dan             Chambers            10        32 Support worker      Rotherh…
    ##  7 David           Atherton            10        36 International heal… Whitby  
    ##  8 Helena          Garcia              10        40 Online project man… Leeds   
    ##  9 Henry           Bird                10        20 Student             Durham  
    ## 10 Imelda          McCarron             9        33 Countryside recrea… County …
    ## # ℹ 16 more rows
…
``` r
anti_join(result_df, bake_df)
```

    ## Joining with `by = join_by(series, episode, baker_fist_name)`

    ## # A tibble: 596 × 5
    ##    series episode baker_fist_name technical result
    ##     <dbl>   <dbl> <chr>               <dbl> <chr> 
    ##  1      1       2 Lea                    NA <NA>  
    ##  2      1       2 Mark                   NA <NA>  
    ##  3      1       3 Annetha                NA <NA>  
    ##  4      1       3 Lea                    NA <NA>  
    ##  5      1       3 Louise                 NA <NA>  
    ##  6      1       3 Mark                   NA <NA>  
    ##  7      1       4 Annetha                NA <NA>  
    ##  8      1       4 Jonathan               NA <NA>  
    ##  9      1       4 Lea                    NA <NA>  
    ## 10      1       4 Louise                 NA <NA>  
    ## # ℹ 586 more rows
…
